{
  "$build/chromium_tests_builder_config": {
    "builder_config": {
      "builder_db": {
        "entries": [
          {
            "builder_id": {
              "bucket": "try",
              "builder": "mac10.14-blink-rel",
              "project": "chromium"
            },
            "builder_spec": {
              "builder_group": "tryserver.blink",
              "execution_mode": "COMPILE_AND_TEST",
              "legacy_chromium_config": {
                "apply_configs": [
                  "mb"
                ],
                "build_config": "Release",
                "config": "chromium",
                "target_bits": 64
              },
              "legacy_gclient_config": {
                "config": "chromium"
              }
            }
          }
        ]
      },
      "builder_ids": [
        {
          "bucket": "try",
          "builder": "mac10.14-blink-rel",
          "project": "chromium"
        }
      ],
      "retry_failed_shards": false
    }
  },
  "$build/goma": {
    "rpc_extra_params": "?prod",
    "server_host": "goma.chromium.org",
    "use_luci_auth": true
  },
  "$recipe_engine/resultdb/test_presentation": {
    "column_keys": [],
    "grouping_keys": [
      "status",
      "v.test_suite"
    ]
  },
  "builder_group": "tryserver.blink",
  "recipe": "chromium_trybot"
}