{
  "$build/chromium_tests_builder_config": {
    "builder_config": {
      "builder_db": {
        "entries": [
          {
            "builder_id": {
              "bucket": "ci",
              "builder": "android-official",
              "project": "chromium"
            },
            "builder_spec": {
              "builder_group": "chromium",
              "execution_mode": "COMPILE_AND_TEST",
              "legacy_android_config": {
                "config": "main_builder"
              },
              "legacy_chromium_config": {
                "apply_configs": [
                  "mb"
                ],
                "config": "android",
                "target_arch": "arm",
                "target_platform": "android"
              },
              "legacy_gclient_config": {
                "apply_configs": [
                  "android",
                  "enable_reclient"
                ],
                "config": "chromium"
              }
            }
          }
        ]
      },
      "builder_ids": [
        {
          "bucket": "ci",
          "builder": "android-official",
          "project": "chromium"
        }
      ]
    }
  },
  "$build/goma": {
    "enable_ats": true,
    "rpc_extra_params": "?prod",
    "server_host": "goma.chromium.org",
    "use_luci_auth": true
  },
  "$recipe_engine/resultdb/test_presentation": {
    "column_keys": [],
    "grouping_keys": [
      "status",
      "v.test_suite"
    ]
  },
  "builder_group": "tryserver.chromium",
  "recipe": "chromium_trybot"
}