{
  "chromeos-amd64-generic-lacros-internal-rel": {
    "args_file": "//build/args/chromeos/amd64-generic-crostoolchain.gni",
    "gn_args": {
      "chromeos_is_browser_only": true,
      "dcheck_always_on": false,
      "is_chromeos_device": true,
      "is_debug": false,
      "ozone_platform_headless": true,
      "target_os": "chromeos",
      "use_goma": true
    }
  },
  "chromeos-arm-generic-cfi-thin-lto-chrome-reclient": {
    "args_file": "//build/args/chromeos/arm-generic.gni",
    "gn_args": {
      "dcheck_always_on": false,
      "is_cfi": true,
      "is_chrome_branded": true,
      "is_chromeos_device": true,
      "is_official_build": true,
      "ozone_platform_headless": true,
      "symbol_level": 2,
      "use_cfi_cast": true,
      "use_remoteexec": true,
      "use_thin_lto": true
    }
  },
  "lacros-arm-generic-chrome-fyi-reclient": {
    "args_file": "//build/args/chromeos/arm-generic-crostoolchain.gni",
    "gn_args": {
      "chromeos_is_browser_only": true,
      "dcheck_always_on": false,
      "is_cfi": true,
      "is_chrome_branded": true,
      "is_chromeos_device": true,
      "is_official_build": true,
      "is_skylab": true,
      "ozone_platform_headless": true,
      "symbol_level": 1,
      "target_os": "chromeos",
      "use_remoteexec": true,
      "use_thin_lto": true
    }
  },
  "linux-autofill-captured-sites-rel": {
    "gn_args": {
      "dcheck_always_on": false,
      "is_component_build": false,
      "is_debug": false,
      "use_goma": true
    }
  },
  "linux-finch-smoke-chrome": {
    "gn_args": {
      "is_chrome_branded": true,
      "is_official_build": true,
      "use_goma": true
    }
  },
  "linux-password-manager-captured-sites-rel": {
    "gn_args": {
      "dcheck_always_on": false,
      "is_component_build": false,
      "is_debug": false,
      "use_goma": true
    }
  },
  "lorenz-graph-dbg": {
    "gn_args": {
      "enable_chrome_android_internal": false,
      "ffmpeg_branding": "Chrome",
      "is_component_build": false,
      "is_debug": true,
      "proprietary_codecs": true,
      "symbol_level": 1,
      "target_os": "android",
      "use_goma": true
    }
  },
  "mac-arm64-finch-smoke-chrome": {
    "gn_args": {
      "ignore_missing_widevine_signing_cert": true,
      "is_chrome_branded": true,
      "is_official_build": true,
      "target_cpu": "arm64",
      "use_goma": true
    }
  },
  "mac-autofill-captured-sites-rel": {
    "gn_args": {
      "dcheck_always_on": false,
      "is_component_build": false,
      "is_debug": false,
      "use_goma": true
    }
  },
  "win-autofill-captured-sites-rel": {
    "gn_args": {
      "dcheck_always_on": false,
      "is_component_build": false,
      "is_debug": false,
      "use_goma": true
    }
  },
  "win-celab-rel": {
    "gn_args": {
      "dcheck_always_on": false,
      "is_chrome_branded": true,
      "is_component_build": false,
      "is_debug": false,
      "is_official_build": true,
      "symbol_level": 1,
      "use_goma": true
    }
  },
  "win-finch-smoke-chrome": {
    "gn_args": {
      "is_chrome_branded": true,
      "is_official_build": true,
      "use_goma": true
    }
  },
  "win-password-manager-captured-sites-rel": {
    "gn_args": {
      "dcheck_always_on": false,
      "is_component_build": false,
      "is_debug": false,
      "use_goma": true
    }
  }
}