{
  "schema": "pedal_concepts_runtime",
  "schema_version": 3,
  "data_version": 16535305,
  "tokenize_each_character": false,
  "dictionary": [
    "chrome",
    "cookie",
    "google",
    "άνοιγμα",
    "ένα",
    "έναρξη",
    "ένας",
    "αλλαγή",
    "ανώνυμη",
    "ανώνυμης",
    "ανώνυμο",
    "αποθήκευση",
    "αυτή",
    "για",
    "γλώσσας",
    "δεδομένα",
    "δημιουργία",
    "διαγραφή",
    "διαπιστευτήρια",
    "διαχείριση",
    "διαχειριστής",
    "εγκατάσταση",
    "εγώ",
    "εισαγωγή",
    "εκκίνηση",
    "εκκαθάριση",
    "εμφάνιση",
    "ενημέρωση",
    "εντός",
    "επεξεργασία",
    "η",
    "ιδιωτική",
    "ιδιωτικό",
    "ιστορικό",
    "κάνω",
    "κάρτα",
    "κάρτας",
    "κάρτες",
    "καρτέλα",
    "κατάργηση",
    "κρυφή",
    "κωδικοί",
    "κωδικός",
    "λειτουργία",
    "μέσα",
    "μετάφραση",
    "μια",
    "μνήμη",
    "μου",
    "παράθυρο",
    "περιήγηση",
    "περιήγησης",
    "πιστωτικές",
    "πιστωτική",
    "πιστωτικής",
    "πληροφορίες",
    "πληρωμές",
    "πληρωμή",
    "πληρωμής",
    "προβολή",
    "πρόγραμμα",
    "πρόσβασης",
    "πώς",
    "σε",
    "σελίδα",
    "στην",
    "στο",
    "στοιχεία",
    "στον",
    "την",
    "το",
    "τον",
    "τρόποι",
    "一時的踏板placeholder"
  ],
  "pedals": [
    {
      "id": 1,
      "groups": [
        {
          "required": false,
          "single": true,
          "synonyms": [
            [
              60,
              51
            ],
            [
              2,
              0
            ],
            [
              50
            ],
            [
              0
            ]
          ]
        },
        {
          "required": true,
          "single": true,
          "synonyms": [
            [
              25
            ],
            [
              39
            ],
            [
              17
            ]
          ]
        },
        {
          "required": true,
          "single": true,
          "synonyms": [
            [
              40,
              47
            ],
            [
              55
            ],
            [
              15
            ],
            [
              33
            ],
            [
              1
            ]
          ]
        }
      ],
      "omnibox_ui_strings": null,
      "url": ""
    },
    {
      "id": 2,
      "groups": [
        {
          "required": false,
          "single": true,
          "synonyms": [
            [
              60,
              51
            ],
            [
              2,
              0
            ],
            [
              0
            ]
          ]
        },
        {
          "required": true,
          "single": true,
          "synonyms": [
            [
              20
            ],
            [
              29
            ],
            [
              11
            ],
            [
              19
            ],
            [
              27
            ],
            [
              26
            ],
            [
              59
            ],
            [
              7
            ]
          ]
        },
        {
          "required": true,
          "single": true,
          "synonyms": [
            [
              41,
              61
            ],
            [
              42,
              61
            ],
            [
              18
            ]
          ]
        }
      ],
      "omnibox_ui_strings": null,
      "url": ""
    },
    {
      "id": 3,
      "groups": [
        {
          "required": false,
          "single": true,
          "synonyms": [
            [
              60,
              51
            ],
            [
              2,
              0
            ],
            [
              0
            ]
          ]
        },
        {
          "required": true,
          "single": true,
          "synonyms": [
            [
              29
            ],
            [
              11
            ],
            [
              19
            ],
            [
              27
            ],
            [
              7
            ]
          ]
        },
        {
          "required": true,
          "single": true,
          "synonyms": [
            [
              55,
              54,
              36
            ],
            [
              67,
              54,
              36
            ],
            [
              55,
              36
            ],
            [
              52,
              37
            ],
            [
              53,
              35
            ],
            [
              67,
              36
            ],
            [
              72,
              58
            ],
            [
              56
            ],
            [
              57
            ],
            [
              37
            ]
          ]
        }
      ],
      "omnibox_ui_strings": null,
      "url": ""
    },
    {
      "id": 4,
      "groups": [
        {
          "required": false,
          "single": true,
          "synonyms": [
            [
              60,
              51
            ],
            [
              2,
              0
            ],
            [
              0
            ]
          ]
        },
        {
          "required": false,
          "single": true,
          "synonyms": [
            [
              16
            ],
            [
              23
            ],
            [
              24
            ],
            [
              3
            ],
            [
              5
            ]
          ]
        },
        {
          "required": true,
          "single": true,
          "synonyms": [
            [
              49,
              8,
              50
            ],
            [
              38,
              9,
              51
            ],
            [
              31,
              43
            ],
            [
              8,
              50
            ],
            [
              32,
              49
            ],
            [
              31,
              38
            ],
            [
              10
            ]
          ]
        }
      ],
      "omnibox_ui_strings": null,
      "url": ""
    },
    {
      "id": 5,
      "groups": [
        {
          "required": false,
          "single": true,
          "synonyms": [
            [
              60,
              51
            ],
            [
              2,
              0
            ],
            [
              0
            ]
          ]
        },
        {
          "required": true,
          "single": true,
          "synonyms": [
            [
              7,
              14
            ],
            [
              45
            ]
          ]
        },
        {
          "required": true,
          "single": true,
          "synonyms": [
            [
              12,
              30,
              64
            ],
            [
              64
            ],
            [
              12
            ]
          ]
        }
      ],
      "omnibox_ui_strings": null,
      "url": ""
    },
    {
      "id": 6,
      "groups": [
        {
          "required": true,
          "single": true,
          "synonyms": [
            [
              60,
              51
            ],
            [
              2,
              0
            ],
            [
              0
            ]
          ]
        },
        {
          "required": true,
          "single": true,
          "synonyms": [
            [
              21
            ],
            [
              27
            ]
          ]
        }
      ],
      "omnibox_ui_strings": null,
      "url": ""
    },
    {
      "id": 26,
      "groups": [
        {
          "required": true,
          "single": true,
          "synonyms": [
            [
              73
            ]
          ]
        }
      ],
      "omnibox_ui_strings": null,
      "url": ""
    },
    {
      "id": 27,
      "groups": [
        {
          "required": true,
          "single": true,
          "synonyms": [
            [
              73
            ]
          ]
        }
      ],
      "omnibox_ui_strings": null,
      "url": "chrome://dino"
    },
    {
      "id": 28,
      "groups": [
        {
          "required": true,
          "single": true,
          "synonyms": [
            [
              73
            ]
          ]
        }
      ],
      "omnibox_ui_strings": null,
      "url": "https://myaccount.google.com/find-your-phone?utm_source=ga-chrome-actions&utm_medium=findYourPhone"
    },
    {
      "id": 29,
      "groups": [
        {
          "required": true,
          "single": true,
          "synonyms": [
            [
              73
            ]
          ]
        }
      ],
      "omnibox_ui_strings": null,
      "url": "https://myaccount.google.com/data-and-privacy?utm_source=ga-chrome-actions&utm_medium=managePrivacy"
    },
    {
      "id": 31,
      "groups": [
        {
          "required": true,
          "single": true,
          "synonyms": [
            [
              73
            ]
          ]
        }
      ],
      "omnibox_ui_strings": null,
      "url": "chrome://settings"
    },
    {
      "id": 32,
      "groups": [
        {
          "required": true,
          "single": true,
          "synonyms": [
            [
              73
            ]
          ]
        }
      ],
      "omnibox_ui_strings": null,
      "url": "chrome://downloads"
    },
    {
      "id": 33,
      "groups": [
        {
          "required": true,
          "single": true,
          "synonyms": [
            [
              73
            ]
          ]
        }
      ],
      "omnibox_ui_strings": null,
      "url": "chrome://history"
    },
    {
      "id": 34,
      "groups": [
        {
          "required": true,
          "single": true,
          "synonyms": [
            [
              73
            ]
          ]
        }
      ],
      "omnibox_ui_strings": null,
      "url": ""
    },
    {
      "id": 35,
      "groups": [
        {
          "required": true,
          "single": true,
          "synonyms": [
            [
              73
            ]
          ]
        }
      ],
      "omnibox_ui_strings": null,
      "url": "chrome://settings/accessibility"
    },
    {
      "id": 36,
      "groups": [
        {
          "required": true,
          "single": true,
          "synonyms": [
            [
              73
            ]
          ]
        }
      ],
      "omnibox_ui_strings": null,
      "url": "chrome://settings/fonts"
    },
    {
      "id": 37,
      "groups": [
        {
          "required": true,
          "single": true,
          "synonyms": [
            [
              73
            ]
          ]
        }
      ],
      "omnibox_ui_strings": null,
      "url": "chrome://new-tab-page/?customize=backgrounds"
    },
    {
      "id": 38,
      "groups": [
        {
          "required": true,
          "single": true,
          "synonyms": [
            [
              73
            ]
          ]
        }
      ],
      "omnibox_ui_strings": null,
      "url": "chrome://settings/searchEngines"
    },
    {
      "id": 39,
      "groups": [
        {
          "required": true,
          "single": true,
          "synonyms": [
            [
              73
            ]
          ]
        }
      ],
      "omnibox_ui_strings": null,
      "url": "chrome://os-settings/manageAccessibility"
    }
  ],
  "ignore_group": {
    "required": false,
    "single": false,
    "synonyms": [
      [
        28
      ],
      [
        44
      ],
      [
        6
      ],
      [
        34
      ],
      [
        68
      ],
      [
        65
      ],
      [
        13
      ],
      [
        62
      ],
      [
        71
      ],
      [
        69
      ],
      [
        46
      ],
      [
        4
      ],
      [
        66
      ],
      [
        48
      ],
      [
        22
      ],
      [
        70
      ],
      [
        63
      ]
    ]
  },
  "max_tokens": 32
}