{
  "schema": "pedal_concepts_runtime",
  "schema_version": 3,
  "data_version": 16535305,
  "tokenize_each_character": false,
  "dictionary": [
    "chrome",
    "do",
    "google",
    "i",
    "അദൃശ്യ",
    "അപ്ഡേറ്റ്",
    "അപ്‌ഗ്രേഡ്",
    "ആരംഭിക്കുക",
    "ഇത്",
    "ഇല്ലാതാക്കുക",
    "ഇൻസ്‌റ്റാൾ",
    "ഈ",
    "ഉള്ളിൽ",
    "എങ്ങനെ",
    "എഡിറ്റ്",
    "എന്നതിലേക്ക്",
    "എന്നതിൽ",
    "എന്റെ",
    "ഒരു",
    "കാണിക്കുക",
    "കാണുക",
    "കാഷെ",
    "കാർഡുകൾ",
    "കാർഡ്",
    "കുക്കികൾ",
    "ക്രെഡന്‍ഷ്യലുകൾ",
    "ക്രെഡിറ്റ്",
    "ചരിത്രം",
    "ചെയ്യുക",
    "ടാബ്",
    "ഡാറ്റ",
    "തുറക്കുക",
    "ദി",
    "നീക്കം",
    "നൽകുക",
    "പാസ്‌വേഡുകൾ",
    "പാസ്‌വേഡ്",
    "പേജ്",
    "പേയ്‌മെന്റുകൾ",
    "പേയ്‌മെന്റ്",
    "ബ്രൗസിംഗ്",
    "ബ്രൗസർ",
    "ഭാഷ",
    "മാനേജ്",
    "മാനേജർ",
    "മായ്ക്കുക",
    "മായ്‌ക്കുക",
    "മാറ്റുക",
    "മോഡ്",
    "രീതികൾ",
    "ലോഞ്ച്",
    "വിവരങ്ങൾ",
    "വിവർത്തനം",
    "വിൻഡോ",
    "സംരക്ഷിക്കുക",
    "സൃഷ്‌ടിക്കുക",
    "സ്വകാര്യ",
    "一時的踏板placeholder"
  ],
  "pedals": [
    {
      "id": 1,
      "groups": [
        {
          "required": false,
          "single": true,
          "synonyms": [
            [
              2,
              0
            ],
            [
              40
            ],
            [
              41
            ],
            [
              0
            ]
          ]
        },
        {
          "required": true,
          "single": true,
          "synonyms": [
            [
              33,
              28
            ],
            [
              9
            ],
            [
              46
            ],
            [
              45
            ]
          ]
        },
        {
          "required": true,
          "single": true,
          "synonyms": [
            [
              24
            ],
            [
              51
            ],
            [
              27
            ],
            [
              30
            ],
            [
              21
            ]
          ]
        }
      ],
      "omnibox_ui_strings": null,
      "url": ""
    },
    {
      "id": 2,
      "groups": [
        {
          "required": false,
          "single": true,
          "synonyms": [
            [
              2,
              0
            ],
            [
              41
            ],
            [
              0
            ]
          ]
        },
        {
          "required": true,
          "single": true,
          "synonyms": [
            [
              5,
              28
            ],
            [
              14,
              28
            ],
            [
              43,
              28
            ],
            [
              54
            ],
            [
              19
            ],
            [
              47
            ],
            [
              44
            ],
            [
              20
            ]
          ]
        },
        {
          "required": true,
          "single": true,
          "synonyms": [
            [
              25
            ],
            [
              35
            ],
            [
              36
            ]
          ]
        }
      ],
      "omnibox_ui_strings": null,
      "url": ""
    },
    {
      "id": 3,
      "groups": [
        {
          "required": false,
          "single": true,
          "synonyms": [
            [
              2,
              0
            ],
            [
              41
            ],
            [
              0
            ]
          ]
        },
        {
          "required": true,
          "single": true,
          "synonyms": [
            [
              5,
              28
            ],
            [
              14,
              28
            ],
            [
              43,
              28
            ],
            [
              54
            ],
            [
              47
            ]
          ]
        },
        {
          "required": true,
          "single": true,
          "synonyms": [
            [
              26,
              23,
              51
            ],
            [
              26,
              22
            ],
            [
              39,
              49
            ],
            [
              26,
              23
            ],
            [
              23,
              51
            ],
            [
              38
            ],
            [
              39
            ],
            [
              22
            ]
          ]
        }
      ],
      "omnibox_ui_strings": null,
      "url": ""
    },
    {
      "id": 4,
      "groups": [
        {
          "required": false,
          "single": true,
          "synonyms": [
            [
              2,
              0
            ],
            [
              41
            ],
            [
              0
            ]
          ]
        },
        {
          "required": false,
          "single": true,
          "synonyms": [
            [
              50,
              28
            ],
            [
              55
            ],
            [
              7
            ],
            [
              31
            ],
            [
              34
            ]
          ]
        },
        {
          "required": true,
          "single": true,
          "synonyms": [
            [
              56,
              53
            ],
            [
              56,
              29
            ],
            [
              56,
              48
            ],
            [
              4,
              53
            ],
            [
              4,
              29
            ],
            [
              4,
              48
            ]
          ]
        }
      ],
      "omnibox_ui_strings": null,
      "url": ""
    },
    {
      "id": 5,
      "groups": [
        {
          "required": false,
          "single": true,
          "synonyms": [
            [
              2,
              0
            ],
            [
              41
            ],
            [
              0
            ]
          ]
        },
        {
          "required": true,
          "single": true,
          "synonyms": [
            [
              52,
              28
            ],
            [
              42,
              47
            ]
          ]
        },
        {
          "required": true,
          "single": true,
          "synonyms": [
            [
              11,
              37
            ],
            [
              37
            ],
            [
              8
            ]
          ]
        }
      ],
      "omnibox_ui_strings": null,
      "url": ""
    },
    {
      "id": 6,
      "groups": [
        {
          "required": true,
          "single": true,
          "synonyms": [
            [
              2,
              0
            ],
            [
              41
            ],
            [
              0
            ]
          ]
        },
        {
          "required": true,
          "single": true,
          "synonyms": [
            [
              6,
              28
            ],
            [
              10,
              28
            ],
            [
              5,
              28
            ]
          ]
        }
      ],
      "omnibox_ui_strings": null,
      "url": ""
    },
    {
      "id": 26,
      "groups": [
        {
          "required": true,
          "single": true,
          "synonyms": [
            [
              57
            ]
          ]
        }
      ],
      "omnibox_ui_strings": null,
      "url": ""
    },
    {
      "id": 27,
      "groups": [
        {
          "required": true,
          "single": true,
          "synonyms": [
            [
              57
            ]
          ]
        }
      ],
      "omnibox_ui_strings": null,
      "url": "chrome://dino"
    },
    {
      "id": 28,
      "groups": [
        {
          "required": true,
          "single": true,
          "synonyms": [
            [
              57
            ]
          ]
        }
      ],
      "omnibox_ui_strings": null,
      "url": "https://myaccount.google.com/find-your-phone?utm_source=ga-chrome-actions&utm_medium=findYourPhone"
    },
    {
      "id": 29,
      "groups": [
        {
          "required": true,
          "single": true,
          "synonyms": [
            [
              57
            ]
          ]
        }
      ],
      "omnibox_ui_strings": null,
      "url": "https://myaccount.google.com/data-and-privacy?utm_source=ga-chrome-actions&utm_medium=managePrivacy"
    },
    {
      "id": 31,
      "groups": [
        {
          "required": true,
          "single": true,
          "synonyms": [
            [
              57
            ]
          ]
        }
      ],
      "omnibox_ui_strings": null,
      "url": "chrome://settings"
    },
    {
      "id": 32,
      "groups": [
        {
          "required": true,
          "single": true,
          "synonyms": [
            [
              57
            ]
          ]
        }
      ],
      "omnibox_ui_strings": null,
      "url": "chrome://downloads"
    },
    {
      "id": 33,
      "groups": [
        {
          "required": true,
          "single": true,
          "synonyms": [
            [
              57
            ]
          ]
        }
      ],
      "omnibox_ui_strings": null,
      "url": "chrome://history"
    },
    {
      "id": 34,
      "groups": [
        {
          "required": true,
          "single": true,
          "synonyms": [
            [
              57
            ]
          ]
        }
      ],
      "omnibox_ui_strings": null,
      "url": ""
    },
    {
      "id": 35,
      "groups": [
        {
          "required": true,
          "single": true,
          "synonyms": [
            [
              57
            ]
          ]
        }
      ],
      "omnibox_ui_strings": null,
      "url": "chrome://settings/accessibility"
    },
    {
      "id": 36,
      "groups": [
        {
          "required": true,
          "single": true,
          "synonyms": [
            [
              57
            ]
          ]
        }
      ],
      "omnibox_ui_strings": null,
      "url": "chrome://settings/fonts"
    },
    {
      "id": 37,
      "groups": [
        {
          "required": true,
          "single": true,
          "synonyms": [
            [
              57
            ]
          ]
        }
      ],
      "omnibox_ui_strings": null,
      "url": "chrome://new-tab-page/?customize=backgrounds"
    },
    {
      "id": 38,
      "groups": [
        {
          "required": true,
          "single": true,
          "synonyms": [
            [
              57
            ]
          ]
        }
      ],
      "omnibox_ui_strings": null,
      "url": "chrome://settings/searchEngines"
    },
    {
      "id": 39,
      "groups": [
        {
          "required": true,
          "single": true,
          "synonyms": [
            [
              57
            ]
          ]
        }
      ],
      "omnibox_ui_strings": null,
      "url": "chrome://os-settings/manageAccessibility"
    }
  ],
  "ignore_group": {
    "required": false,
    "single": false,
    "synonyms": [
      [
        15
      ],
      [
        16
      ],
      [
        12
      ],
      [
        13
      ],
      [
        17
      ],
      [
        18
      ],
      [
        32
      ],
      [
        1
      ],
      [
        3
      ]
    ]
  },
  "max_tokens": 32
}