{
  "schema": "pedal_concepts_runtime",
  "schema_version": 3,
  "data_version": 16535305,
  "tokenize_each_character": false,
  "dictionary": [
    "beleženja",
    "brez",
    "brskalnik",
    "brskanje",
    "chrome",
    "dejavnosti",
    "gesla",
    "geslo",
    "google",
    "informacije",
    "izbriši",
    "izprazni",
    "jezik",
    "kako",
    "kartice",
    "kartici",
    "kartico",
    "kreditne",
    "kreditni",
    "kreditno",
    "moji",
    "na",
    "nadgradi",
    "namesti",
    "način",
    "o",
    "odpri",
    "odstrani",
    "okno",
    "piškotke",
    "plačila",
    "plačilna",
    "plačilo",
    "pobriši",
    "podatke",
    "pokaži",
    "posodobi",
    "poverilnice",
    "počisti",
    "predpomnilnik",
    "prevedi",
    "prikaži",
    "se",
    "shrani",
    "spremeni",
    "sredstva",
    "stran",
    "to",
    "upravitelj",
    "upravljaj",
    "uredi",
    "ustvari",
    "v",
    "za",
    "zasebni",
    "zasebno",
    "zavihek",
    "začni",
    "zaženi",
    "zgodovino",
    "znotraj",
    "一時的踏板placeholder"
  ],
  "pedals": [
    {
      "id": 1,
      "groups": [
        {
          "required": false,
          "single": true,
          "synonyms": [
            [
              8,
              4
            ],
            [
              2
            ],
            [
              3
            ],
            [
              4
            ]
          ]
        },
        {
          "required": true,
          "single": true,
          "synonyms": [
            [
              10
            ],
            [
              11
            ],
            [
              27
            ],
            [
              33
            ],
            [
              38
            ]
          ]
        },
        {
          "required": true,
          "single": true,
          "synonyms": [
            [
              39
            ],
            [
              9
            ],
            [
              29
            ],
            [
              59
            ],
            [
              34
            ]
          ]
        }
      ],
      "omnibox_ui_strings": null,
      "url": ""
    },
    {
      "id": 2,
      "groups": [
        {
          "required": false,
          "single": true,
          "synonyms": [
            [
              8,
              4
            ],
            [
              2
            ],
            [
              4
            ]
          ]
        },
        {
          "required": true,
          "single": true,
          "synonyms": [
            [
              48
            ],
            [
              49
            ],
            [
              36
            ],
            [
              41
            ],
            [
              44
            ],
            [
              35
            ],
            [
              43
            ],
            [
              50
            ]
          ]
        },
        {
          "required": true,
          "single": true,
          "synonyms": [
            [
              37
            ],
            [
              6
            ],
            [
              7
            ]
          ]
        }
      ],
      "omnibox_ui_strings": null,
      "url": ""
    },
    {
      "id": 3,
      "groups": [
        {
          "required": false,
          "single": true,
          "synonyms": [
            [
              8,
              4
            ],
            [
              2
            ],
            [
              4
            ]
          ]
        },
        {
          "required": true,
          "single": true,
          "synonyms": [
            [
              49
            ],
            [
              36
            ],
            [
              44
            ],
            [
              43
            ],
            [
              50
            ]
          ]
        },
        {
          "required": true,
          "single": true,
          "synonyms": [
            [
              34,
              25,
              18,
              15
            ],
            [
              34,
              25,
              15
            ],
            [
              31,
              45
            ],
            [
              17,
              14
            ],
            [
              19,
              16
            ],
            [
              30
            ],
            [
              32
            ],
            [
              14
            ]
          ]
        }
      ],
      "omnibox_ui_strings": null,
      "url": ""
    },
    {
      "id": 4,
      "groups": [
        {
          "required": false,
          "single": true,
          "synonyms": [
            [
              8,
              4
            ],
            [
              2
            ],
            [
              4
            ]
          ]
        },
        {
          "required": false,
          "single": true,
          "synonyms": [
            [
              51
            ],
            [
              58
            ],
            [
              57
            ],
            [
              26
            ]
          ]
        },
        {
          "required": true,
          "single": true,
          "synonyms": [
            [
              56,
              1,
              0,
              5
            ],
            [
              24,
              1,
              0,
              5
            ],
            [
              28,
              1,
              0,
              5
            ],
            [
              1,
              0,
              5
            ],
            [
              54,
              56
            ],
            [
              54,
              24
            ],
            [
              55,
              28
            ]
          ]
        }
      ],
      "omnibox_ui_strings": null,
      "url": ""
    },
    {
      "id": 5,
      "groups": [
        {
          "required": false,
          "single": true,
          "synonyms": [
            [
              8,
              4
            ],
            [
              2
            ],
            [
              4
            ]
          ]
        },
        {
          "required": true,
          "single": true,
          "synonyms": [
            [
              44,
              12
            ],
            [
              40
            ]
          ]
        },
        {
          "required": true,
          "single": true,
          "synonyms": [
            [
              47,
              46
            ],
            [
              46
            ],
            [
              47
            ]
          ]
        }
      ],
      "omnibox_ui_strings": null,
      "url": ""
    },
    {
      "id": 6,
      "groups": [
        {
          "required": true,
          "single": true,
          "synonyms": [
            [
              8,
              4
            ],
            [
              2
            ],
            [
              4
            ]
          ]
        },
        {
          "required": true,
          "single": true,
          "synonyms": [
            [
              22
            ],
            [
              36
            ],
            [
              23
            ]
          ]
        }
      ],
      "omnibox_ui_strings": null,
      "url": ""
    },
    {
      "id": 26,
      "groups": [
        {
          "required": true,
          "single": true,
          "synonyms": [
            [
              61
            ]
          ]
        }
      ],
      "omnibox_ui_strings": null,
      "url": ""
    },
    {
      "id": 27,
      "groups": [
        {
          "required": true,
          "single": true,
          "synonyms": [
            [
              61
            ]
          ]
        }
      ],
      "omnibox_ui_strings": null,
      "url": "chrome://dino"
    },
    {
      "id": 28,
      "groups": [
        {
          "required": true,
          "single": true,
          "synonyms": [
            [
              61
            ]
          ]
        }
      ],
      "omnibox_ui_strings": null,
      "url": "https://myaccount.google.com/find-your-phone?utm_source=ga-chrome-actions&utm_medium=findYourPhone"
    },
    {
      "id": 29,
      "groups": [
        {
          "required": true,
          "single": true,
          "synonyms": [
            [
              61
            ]
          ]
        }
      ],
      "omnibox_ui_strings": null,
      "url": "https://myaccount.google.com/data-and-privacy?utm_source=ga-chrome-actions&utm_medium=managePrivacy"
    },
    {
      "id": 31,
      "groups": [
        {
          "required": true,
          "single": true,
          "synonyms": [
            [
              61
            ]
          ]
        }
      ],
      "omnibox_ui_strings": null,
      "url": "chrome://settings"
    },
    {
      "id": 32,
      "groups": [
        {
          "required": true,
          "single": true,
          "synonyms": [
            [
              61
            ]
          ]
        }
      ],
      "omnibox_ui_strings": null,
      "url": "chrome://downloads"
    },
    {
      "id": 33,
      "groups": [
        {
          "required": true,
          "single": true,
          "synonyms": [
            [
              61
            ]
          ]
        }
      ],
      "omnibox_ui_strings": null,
      "url": "chrome://history"
    },
    {
      "id": 34,
      "groups": [
        {
          "required": true,
          "single": true,
          "synonyms": [
            [
              61
            ]
          ]
        }
      ],
      "omnibox_ui_strings": null,
      "url": ""
    },
    {
      "id": 35,
      "groups": [
        {
          "required": true,
          "single": true,
          "synonyms": [
            [
              61
            ]
          ]
        }
      ],
      "omnibox_ui_strings": null,
      "url": "chrome://settings/accessibility"
    },
    {
      "id": 36,
      "groups": [
        {
          "required": true,
          "single": true,
          "synonyms": [
            [
              61
            ]
          ]
        }
      ],
      "omnibox_ui_strings": null,
      "url": "chrome://settings/fonts"
    },
    {
      "id": 37,
      "groups": [
        {
          "required": true,
          "single": true,
          "synonyms": [
            [
              61
            ]
          ]
        }
      ],
      "omnibox_ui_strings": null,
      "url": "chrome://new-tab-page/?customize=backgrounds"
    },
    {
      "id": 38,
      "groups": [
        {
          "required": true,
          "single": true,
          "synonyms": [
            [
              61
            ]
          ]
        }
      ],
      "omnibox_ui_strings": null,
      "url": "chrome://settings/searchEngines"
    },
    {
      "id": 39,
      "groups": [
        {
          "required": true,
          "single": true,
          "synonyms": [
            [
              61
            ]
          ]
        }
      ],
      "omnibox_ui_strings": null,
      "url": "chrome://os-settings/manageAccessibility"
    }
  ],
  "ignore_group": {
    "required": false,
    "single": false,
    "synonyms": [
      [
        60
      ],
      [
        13
      ],
      [
        20
      ],
      [
        53
      ],
      [
        42
      ],
      [
        21
      ],
      [
        52
      ]
    ]
  },
  "max_tokens": 32
}