{
  "schema": "pedal_concepts_runtime",
  "schema_version": 3,
  "data_version": 16535305,
  "tokenize_each_character": false,
  "dictionary": [
    "a",
    "ablak",
    "adat",
    "adatai",
    "adatok",
    "az",
    "bankkártya",
    "bejelentkezési",
    "belül",
    "böngészési",
    "böngésző",
    "chrome",
    "cookie",
    "egy",
    "eltávolítani",
    "eltávolítása",
    "előzmények",
    "ez",
    "ezt",
    "fizetés",
    "fizetések",
    "fizetési",
    "fordítsd",
    "fordítása",
    "frissítés",
    "frissítése",
    "google",
    "gyorsítótár",
    "hitelkártya",
    "hogy",
    "hogyan",
    "indítása",
    "információk",
    "inkognitó",
    "jelszavak",
    "jelszó",
    "kezdése",
    "kezelése",
    "kezelő",
    "kártya",
    "kártyaadatok",
    "kártyák",
    "lap",
    "le",
    "lefordítása",
    "lehet",
    "lépés",
    "létrehozása",
    "megjelenítése",
    "megnyitása",
    "megtekintése",
    "mentése",
    "mód",
    "módok",
    "módosítása",
    "nyelvváltás",
    "nyelvének",
    "oldal",
    "oldalt",
    "privát",
    "saját",
    "szerkesztése",
    "telepítése",
    "tisztítása",
    "tudom",
    "törlése",
    "törölni",
    "verzió",
    "én",
    "一時的踏板placeholder"
  ],
  "pedals": [
    {
      "id": 1,
      "groups": [
        {
          "required": false,
          "single": true,
          "synonyms": [
            [
              26,
              11
            ],
            [
              9
            ],
            [
              10
            ],
            [
              11
            ]
          ]
        },
        {
          "required": true,
          "single": true,
          "synonyms": [
            [
              15
            ],
            [
              14
            ],
            [
              63
            ],
            [
              65
            ],
            [
              66
            ]
          ]
        },
        {
          "required": true,
          "single": true,
          "synonyms": [
            [
              27
            ],
            [
              32
            ],
            [
              16
            ],
            [
              4
            ],
            [
              12
            ],
            [
              2
            ]
          ]
        }
      ],
      "omnibox_ui_strings": null,
      "url": ""
    },
    {
      "id": 2,
      "groups": [
        {
          "required": false,
          "single": true,
          "synonyms": [
            [
              26,
              11
            ],
            [
              10
            ],
            [
              11
            ]
          ]
        },
        {
          "required": true,
          "single": true,
          "synonyms": [
            [
              48
            ],
            [
              50
            ],
            [
              54
            ],
            [
              61
            ],
            [
              25
            ],
            [
              37
            ],
            [
              51
            ],
            [
              38
            ]
          ]
        },
        {
          "required": true,
          "single": true,
          "synonyms": [
            [
              7,
              4
            ],
            [
              34
            ],
            [
              35
            ]
          ]
        }
      ],
      "omnibox_ui_strings": null,
      "url": ""
    },
    {
      "id": 3,
      "groups": [
        {
          "required": false,
          "single": true,
          "synonyms": [
            [
              26,
              11
            ],
            [
              10
            ],
            [
              11
            ]
          ]
        },
        {
          "required": true,
          "single": true,
          "synonyms": [
            [
              54
            ],
            [
              61
            ],
            [
              25
            ],
            [
              37
            ],
            [
              51
            ]
          ]
        },
        {
          "required": true,
          "single": true,
          "synonyms": [
            [
              28,
              4
            ],
            [
              6,
              4
            ],
            [
              21,
              53
            ],
            [
              39,
              3
            ],
            [
              40
            ],
            [
              28
            ],
            [
              6
            ],
            [
              20
            ],
            [
              41
            ],
            [
              19
            ]
          ]
        }
      ],
      "omnibox_ui_strings": null,
      "url": ""
    },
    {
      "id": 4,
      "groups": [
        {
          "required": false,
          "single": true,
          "synonyms": [
            [
              26,
              11
            ],
            [
              10
            ],
            [
              11
            ]
          ]
        },
        {
          "required": false,
          "single": true,
          "synonyms": [
            [
              47
            ],
            [
              49
            ],
            [
              31
            ],
            [
              36
            ],
            [
              46
            ]
          ]
        },
        {
          "required": true,
          "single": true,
          "synonyms": [
            [
              33,
              1
            ],
            [
              33,
              52
            ],
            [
              33,
              42
            ],
            [
              59,
              1
            ],
            [
              59,
              52
            ],
            [
              59,
              42
            ],
            [
              33
            ]
          ]
        }
      ],
      "omnibox_ui_strings": null,
      "url": ""
    },
    {
      "id": 5,
      "groups": [
        {
          "required": false,
          "single": true,
          "synonyms": [
            [
              26,
              11
            ],
            [
              10
            ],
            [
              11
            ]
          ]
        },
        {
          "required": true,
          "single": true,
          "synonyms": [
            [
              56,
              54
            ],
            [
              44
            ]
          ]
        },
        {
          "required": true,
          "single": true,
          "synonyms": [
            [
              18,
              58
            ],
            [
              22,
              43
            ],
            [
              55
            ],
            [
              23
            ],
            [
              57
            ],
            [
              17
            ]
          ]
        }
      ],
      "omnibox_ui_strings": null,
      "url": ""
    },
    {
      "id": 6,
      "groups": [
        {
          "required": true,
          "single": true,
          "synonyms": [
            [
              26,
              11
            ],
            [
              10
            ],
            [
              11
            ]
          ]
        },
        {
          "required": true,
          "single": true,
          "synonyms": [
            [
              25
            ],
            [
              62
            ],
            [
              24
            ],
            [
              67
            ]
          ]
        }
      ],
      "omnibox_ui_strings": null,
      "url": ""
    },
    {
      "id": 26,
      "groups": [
        {
          "required": true,
          "single": true,
          "synonyms": [
            [
              69
            ]
          ]
        }
      ],
      "omnibox_ui_strings": null,
      "url": ""
    },
    {
      "id": 27,
      "groups": [
        {
          "required": true,
          "single": true,
          "synonyms": [
            [
              69
            ]
          ]
        }
      ],
      "omnibox_ui_strings": null,
      "url": "chrome://dino"
    },
    {
      "id": 28,
      "groups": [
        {
          "required": true,
          "single": true,
          "synonyms": [
            [
              69
            ]
          ]
        }
      ],
      "omnibox_ui_strings": null,
      "url": "https://myaccount.google.com/find-your-phone?utm_source=ga-chrome-actions&utm_medium=findYourPhone"
    },
    {
      "id": 29,
      "groups": [
        {
          "required": true,
          "single": true,
          "synonyms": [
            [
              69
            ]
          ]
        }
      ],
      "omnibox_ui_strings": null,
      "url": "https://myaccount.google.com/data-and-privacy?utm_source=ga-chrome-actions&utm_medium=managePrivacy"
    },
    {
      "id": 31,
      "groups": [
        {
          "required": true,
          "single": true,
          "synonyms": [
            [
              69
            ]
          ]
        }
      ],
      "omnibox_ui_strings": null,
      "url": "chrome://settings"
    },
    {
      "id": 32,
      "groups": [
        {
          "required": true,
          "single": true,
          "synonyms": [
            [
              69
            ]
          ]
        }
      ],
      "omnibox_ui_strings": null,
      "url": "chrome://downloads"
    },
    {
      "id": 33,
      "groups": [
        {
          "required": true,
          "single": true,
          "synonyms": [
            [
              69
            ]
          ]
        }
      ],
      "omnibox_ui_strings": null,
      "url": "chrome://history"
    },
    {
      "id": 34,
      "groups": [
        {
          "required": true,
          "single": true,
          "synonyms": [
            [
              69
            ]
          ]
        }
      ],
      "omnibox_ui_strings": null,
      "url": ""
    },
    {
      "id": 35,
      "groups": [
        {
          "required": true,
          "single": true,
          "synonyms": [
            [
              69
            ]
          ]
        }
      ],
      "omnibox_ui_strings": null,
      "url": "chrome://settings/accessibility"
    },
    {
      "id": 36,
      "groups": [
        {
          "required": true,
          "single": true,
          "synonyms": [
            [
              69
            ]
          ]
        }
      ],
      "omnibox_ui_strings": null,
      "url": "chrome://settings/fonts"
    },
    {
      "id": 37,
      "groups": [
        {
          "required": true,
          "single": true,
          "synonyms": [
            [
              69
            ]
          ]
        }
      ],
      "omnibox_ui_strings": null,
      "url": "chrome://new-tab-page/?customize=backgrounds"
    },
    {
      "id": 38,
      "groups": [
        {
          "required": true,
          "single": true,
          "synonyms": [
            [
              69
            ]
          ]
        }
      ],
      "omnibox_ui_strings": null,
      "url": "chrome://settings/searchEngines"
    },
    {
      "id": 39,
      "groups": [
        {
          "required": true,
          "single": true,
          "synonyms": [
            [
              69
            ]
          ]
        }
      ],
      "omnibox_ui_strings": null,
      "url": "chrome://os-settings/manageAccessibility"
    }
  ],
  "ignore_group": {
    "required": false,
    "single": false,
    "synonyms": [
      [
        8
      ],
      [
        30
      ],
      [
        60
      ],
      [
        45
      ],
      [
        64
      ],
      [
        29
      ],
      [
        13
      ],
      [
        68
      ],
      [
        5
      ],
      [
        0
      ]
    ]
  },
  "max_tokens": 32
}