{
  "$build/chromium_tests_builder_config": {
    "builder_config": {
      "builder_db": {
        "entries": [
          {
            "builder_id": {
              "bucket": "ci",
              "builder": "Linux Builder (dbg)",
              "project": "chromium"
            },
            "builder_spec": {
              "build_gs_bucket": "chromium-linux-archive",
              "builder_group": "chromium.linux",
              "execution_mode": "COMPILE_AND_TEST",
              "legacy_chromium_config": {
                "apply_configs": [
                  "mb"
                ],
                "build_config": "Debug",
                "config": "chromium",
                "target_bits": 64
              },
              "legacy_gclient_config": {
                "apply_configs": [
                  "enable_reclient"
                ],
                "config": "chromium"
              }
            }
          },
          {
            "builder_id": {
              "bucket": "ci",
              "builder": "Linux Tests (dbg)(1)",
              "project": "chromium"
            },
            "builder_spec": {
              "build_gs_bucket": "chromium-linux-archive",
              "builder_group": "chromium.linux",
              "execution_mode": "TEST",
              "legacy_chromium_config": {
                "apply_configs": [
                  "mb"
                ],
                "build_config": "Debug",
                "config": "chromium",
                "target_bits": 64
              },
              "legacy_gclient_config": {
                "apply_configs": [
                  "enable_reclient"
                ],
                "config": "chromium"
              },
              "parent": {
                "bucket": "ci",
                "builder": "Linux Builder (dbg)",
                "project": "chromium"
              }
            }
          }
        ]
      },
      "builder_ids": [
        {
          "bucket": "ci",
          "builder": "Linux Builder (dbg)",
          "project": "chromium"
        }
      ],
      "builder_ids_in_scope_for_testing": [
        {
          "bucket": "ci",
          "builder": "Linux Tests (dbg)(1)",
          "project": "chromium"
        }
      ]
    }
  },
  "$build/goma": {
    "enable_ats": true,
    "rpc_extra_params": "?prod",
    "server_host": "goma.chromium.org",
    "use_luci_auth": true
  },
  "$build/reclient": {
    "instance": "rbe-chromium-untrusted",
    "metrics_project": "chromium-reclient-metrics"
  },
  "$recipe_engine/resultdb/test_presentation": {
    "column_keys": [],
    "grouping_keys": [
      "status",
      "v.test_suite"
    ]
  },
  "builder_group": "tryserver.chromium.linux",
  "recipe": "chromium_trybot"
}